simu/trace.vcd
$date
  Fri Sep 13 13:46:57 2024
$end
$version
  GHDL v0
$end
$timescale
  1 fs
$end
$scope module standard $end
$upscope $end
$scope module textio $end
$upscope $end
$scope module std_logic_1164 $end
$upscope $end
$scope module numeric_std $end
$upscope $end
$scope module riscv_types $end
$upscope $end
$scope module std_logic_textio $end
$upscope $end
$scope module strings_h $end
$upscope $end
$scope module regexp_h $end
$upscope $end
$scope module ctype_h $end
$upscope $end
$scope module stdlib_h $end
$upscope $end
$scope module stdio_h $end
$upscope $end
$scope module riscv_soc_tb $end
$var reg 1 ! clk100mhz $end
$var reg 1 " reset $end
$var reg 16 # led[15:0] $end
$var reg 1 $ uart_rxd_out $end
$var reg 1 % stop_the_clock $end
$scope module uut $end
$var reg 1 & clk100mhz $end
$var reg 1 ' reset $end
$var reg 16 ( led[15:0] $end
$var reg 1 ) uart_rxd_out $end
$var reg 1 * uart_txd_in $end
$var reg 1 + resetn_cpu $end
$var reg 32 , io_mem_addr[31:0] $end
$var reg 32 - io_mem_rdata[31:0] $end
$var reg 32 . io_mem_wdata[31:0] $end
$var reg 1 / io_mem_wr $end
$var reg 1 0 io_mem_rd $end
$var reg 14 1 io_wordaddr[13:0] $end
$var reg 1 2 uart_valid $end
$var reg 1 3 uart_ready $end
$var reg 1 4 uart_full $end
$var reg 16 5 input_data[15:0] $end
$var reg 16 6 output_data[15:0] $end
$var reg 1 7 data_to_uart_en $end
$var reg 8 8 data_to_uart[7:0] $end
$var reg 8 9 uart_for_debug[7:0] $end
$var reg 1 : data_from_uart_en $end
$var reg 8 ; data_from_uart[7:0] $end
$var reg 1 < data_from_uart_s $end
$var reg 8 = data_from_uart_b[7:0] $end
$var reg 16 > leds_buffer[15:0] $end
$scope module cpu $end
$var reg 1 ? clk $end
$var reg 1 @ resetn $end
$var reg 32 A io_mem_addr[31:0] $end
$var reg 32 B io_mem_rdata[31:0] $end
$var reg 32 C io_mem_wdata[31:0] $end
$var reg 1 D io_mem_rd $end
$var reg 1 E io_mem_wr $end
$var reg 5 F state[4:0] $end
$var reg 1 G halt $end
$var reg 32 H f_pc[31:0] $end
$var reg 32 I jumporbranchaddress[31:0] $end
$var reg 1 J jumporbranch $end
$var reg 1 K wbenable $end
$var reg 32 L fd_pc[31:0] $end
$var reg 32 M fd_instr[31:0] $end
$var reg 32 N de_instr[31:0] $end
$var reg 32 O em_instr[31:0] $end
$var reg 32 P mw_instr[31:0] $end
$var reg 1 Q d_isload $end
$var reg 1 R d_isjalorjalr $end
$var reg 1 S d_isjal $end
$var reg 1 T d_isjalr $end
$var reg 1 U d_isalureg $end
$var reg 1 V d_isbranch $end
$var reg 1 W d_isstore $end
$var reg 1 X d_issystem $end
$var reg 1 Y d_isauipc $end
$var reg 1 Z d_islui $end
$var reg 1 [ d_iscsrrs $end
$var reg 1 \ d_isebreak $end
$var reg 32 ] d_imm[31:0] $end
$var reg 32 ^ d_iimm[31:0] $end
$var reg 32 _ d_simm[31:0] $end
$var reg 32 ` d_uimm[31:0] $end
$var reg 32 a d_jimm[31:0] $end
$var reg 32 b d_bimm[31:0] $end
$var reg 1 c d_isbyte $end
$var reg 1 d d_ishalf $end
$var reg 3 e d_funct3[2:0] $end
$var reg 7 f d_funct7[6:0] $end
$var reg 5 g d_rs1id[4:0] $end
$var reg 5 h d_rs2id[4:0] $end
$var reg 5 i d_rdid[4:0] $end
$var reg 2 j d_csrid[1:0] $end
$var reg 1 k de_isbyte $end
$var reg 1 l de_ishalf $end
$var reg 32 m e_addr[31:0] $end
$var reg 4 n e_storemask1[3:0] $end
$var reg 4 o e_storemask[3:0] $end
$var reg 32 p de_rs1_v[31:0] $end
$var reg 32 q de_rs2_v[31:0] $end
$var reg 1 r de_isalureg $end
$var reg 1 s de_isbranch $end
$var reg 1 t de_isjalr $end
$var reg 1 u de_isjal $end
$var reg 1 v de_isload $end
$var reg 1 w de_isstore $end
$var reg 1 x de_isebreak $end
$var reg 1 y de_iscsrrs $end
$var reg 1 z de_isauipc $end
$var reg 1 { de_islui $end
$var reg 32 | de_imm[31:0] $end
$var reg 5 } de_rdid[4:0] $end
$var reg 2 !" de_csrid[1:0] $end
$var reg 3 "" de_funct3[2:0] $end
$var reg 7 #" de_funct7[6:0] $end
$var reg 1 $" de_isjalorjalr $end
$var reg 32 %" de_pc[31:0] $end
$var reg 32 &" e_store_data[31:0] $end
$var reg 1 '" e_isio $end
$var reg 1 (" e_isram $end
$var reg 14 )" e_word_addr[13:0] $end
$var reg 32 *" e_aluplus[31:0] $end
$var reg 32 +" e_aluout[31:0] $end
$var reg 1 ," e_takebranch $end
$var reg 32 -" em_eresult[31:0] $end
$var reg 32 ." e_result[31:0] $end
$var reg 2 /" em_addr[1:0] $end
$var reg 1 0" em_isio $end
$var reg 1 1" em_isload $end
$var reg 1 2" em_isstore $end
$var reg 1 3" em_isbranch $end
$var reg 1 4" em_iscsrrs $end
$var reg 5 5" em_rdid[4:0] $end
$var reg 3 6" em_funct3[2:0] $end
$var reg 1 7" em_isbyte $end
$var reg 1 8" em_ishalf $end
$var reg 32 9" em_csrdata[31:0] $end
$var reg 32 :" em_mdata[31:0] $end
$var reg 32 ;" em_iodata[31:0] $end
$var reg 1 <" em_jumporbranch $end
$var reg 32 =" em_jumporbranchaddress[31:0] $end
$var reg 32 >" e_jumporbranchaddress[31:0] $end
$var reg 1 ?" m_sext $end
$var reg 16 @" m_load_h[15:0] $end
$var reg 8 A" m_load_b[7:0] $end
$var reg 1 B" m_load_sign $end
$var reg 32 C" m_wloaddata[31:0] $end
$var reg 32 D" m_wbdata[31:0] $end
$var reg 1 E" m_wbenable $end
$var reg 32 F" m_mresult[31:0] $end
$var reg 32 G" mw_wbdata[31:0] $end
$var reg 5 H" mw_rdid[4:0] $end
$var reg 1 I" mw_wbenable $end
$scope module prog_rom $end
$var reg 1 J" clock $end
$var reg 1 K" enable $end
$var reg 14 L" addr_r[13:0] $end
$var reg 32 M" data_o[31:0] $end
$comment memory is not handled $end
$upscope $end
$scope module pc_fetch $end
$var reg 1 N" clk $end
$var reg 1 O" resetn $end
$var reg 1 P" enable_f $end
$var reg 1 Q" enable_m $end
$var reg 32 R" jumporbranchaddress[31:0] $end
$var reg 1 S" jumporbranch $end
$var reg 32 T" pc_value[31:0] $end
$var reg 32 U" pc_value_temp[31:0] $end
$upscope $end
$scope module dec $end
$var reg 32 V" instr_i[31:0] $end
$var reg 1 W" isload_o $end
$var reg 1 X" isstore_o $end
$var reg 1 Y" isalureg_o $end
$var reg 1 Z" isbranch_o $end
$var reg 1 [" issystem_o $end
$var reg 1 \" isjal_o $end
$var reg 1 ]" isjalr_o $end
$var reg 1 ^" isjalorjalr_o $end
$var reg 1 _" isauipc_o $end
$var reg 1 `" islui_o $end
$var reg 1 a" iscsrrs_o $end
$var reg 1 b" isebreak_o $end
$var reg 1 c" isbyte_o $end
$var reg 1 d" ishalf_o $end
$var reg 3 e" funct3_o[2:0] $end
$var reg 7 f" funct7_o[6:0] $end
$var reg 2 g" csrid_o[1:0] $end
$var reg 5 h" rs1_o[4:0] $end
$var reg 5 i" rs2_o[4:0] $end
$var reg 5 j" rdid_o[4:0] $end
$upscope $end
$scope module imm $end
$var reg 32 k" instr[31:0] $end
$var reg 1 l" isstore $end
$var reg 1 m" isload $end
$var reg 1 n" isbranch $end
$var reg 1 o" isjal $end
$var reg 1 p" isauipc $end
$var reg 1 q" islui $end
$var reg 32 r" imm[31:0] $end
$var reg 32 s" s_imm[31:0] $end
$var reg 32 t" i_imm[31:0] $end
$var reg 32 u" j_imm[31:0] $end
$var reg 32 v" u_imm[31:0] $end
$var reg 32 w" b_imm[31:0] $end
$upscope $end
$scope module regs $end
$var reg 1 x" clock $end
$var reg 1 y" reset $end
$var reg 5 z" rs1_id[4:0] $end
$var reg 5 {" rs2_id[4:0] $end
$var reg 5 |" rd_id[4:0] $end
$var reg 1 }" rd_id_we $end
$var reg 32 !# data_rd[31:0] $end
$var reg 32 "# data_rs1[31:0] $end
$var reg 32 ## data_rs2[31:0] $end
$comment registerfile is not handled $end
$upscope $end
$scope module i_alu $end
$var reg 32 $# rs1_v[31:0] $end
$var reg 32 %# rs2_v[31:0] $end
$var reg 1 &# isalureg $end
$var reg 1 '# isbranch $end
$var reg 1 (# isalusubstraction $end
$var reg 3 )# func3[2:0] $end
$var reg 32 *# imm_v[31:0] $end
$var reg 32 +# aluout_v[31:0] $end
$var reg 32 ,# aluplus_v[31:0] $end
$var reg 1 -# takebranch $end
$var reg 32 .# v_plus[31:0] $end
$var reg 32 /# v_plus_imm[31:0] $end
$var reg 32 0# v_minus[31:0] $end
$var reg 32 1# v_xor[31:0] $end
$var reg 32 2# v_or[31:0] $end
$var reg 32 3# v_and[31:0] $end
$var reg 32 4# v_sll_r[31:0] $end
$var reg 32 5# v_sll_i[31:0] $end
$var reg 32 6# v_srl_r[31:0] $end
$var reg 32 7# v_srl_i[31:0] $end
$var reg 32 8# v_sra_r[31:0] $end
$var reg 32 9# v_sra_i[31:0] $end
$var reg 32 :# opt2[31:0] $end
$var reg 32 ;# v_slt_i[31:0] $end
$var reg 32 <# v_slt_r[31:0] $end
$var reg 32 =# v_sltu_r[31:0] $end
$var reg 32 ># v_sltu_i[31:0] $end
$upscope $end
$scope module mem_str $end
$var reg 2 ?# addr_w[1:0] $end
$var reg 32 @# data_w[31:0] $end
$var reg 1 A# is_byte $end
$var reg 1 B# is_half $end
$var reg 4 C# data_mask[3:0] $end
$var reg 32 D# data_value[31:0] $end
$var reg 32 E# byte[31:0] $end
$var reg 32 F# half[31:0] $end
$upscope $end
$scope module csr_reg $end
$var reg 1 G# clk $end
$var reg 1 H# resetn $end
$var reg 1 I# instr_en $end
$var reg 2 J# csr_id[1:0] $end
$var reg 32 K# word_v[31:0] $end
$var reg 64 L# cycle[63:0] $end
$var reg 64 M# instret[63:0] $end
$scope module count_cycles $end
$var reg 1 N# clk $end
$var reg 1 O# resetn $end
$var reg 64 P# counter_v[63:0] $end
$var reg 64 Q# count[63:0] $end
$upscope $end
$scope module count_instr $end
$var reg 1 R# clk $end
$var reg 1 S# resetn $end
$var reg 1 T# enable $end
$var reg 64 U# counter_v[63:0] $end
$var reg 64 V# count[63:0] $end
$upscope $end
$upscope $end
$scope module data_ram $end
$var reg 1 W# clock $end
$var reg 14 X# addr_rw[13:0] $end
$var reg 1 Y# enable $end
$var reg 4 Z# write_m[3:0] $end
$var reg 32 [# data_w[31:0] $end
$var reg 32 \# data_r[31:0] $end
$comment memory is not handled $end
$upscope $end
$scope module mem_ld $end
$var reg 2 ]# addr_r[1:0] $end
$var reg 32 ^# data_r[31:0] $end
$var reg 1 _# is_byte $end
$var reg 1 `# is_half $end
$var reg 1 a# is_sign_ext $end
$var reg 32 b# data_value[31:0] $end
$var reg 32 c# byte[31:0] $end
$var reg 32 d# half[31:0] $end
$upscope $end
$upscope $end
$scope module uart_snd $end
$scope module uart_s_custom $end
$var reg 1 e# clk_100mhz $end
$var reg 1 f# reset $end
$var reg 1 g# dat_en $end
$var reg 8 h# dat[7:0] $end
$var reg 1 i# tx $end
$var reg 1 j# fifo_empty $end
$var reg 1 k# fifo_afull $end
$var reg 1 l# fifo_full $end
$var integer 32 m# cnt $end
$var reg 1 n# top $end
$var reg 9 o# shift[8:0] $end
$var integer 32 p# nbbits $end
$comment fifo is not handled $end
$var integer 32 q# read_index $end
$var integer 32 r# write_index $end
$var integer 32 s# n_elements $end
$var reg 1 t# b_dat_en $end
$var reg 8 u# b_dat[7:0] $end
$upscope $end
$upscope $end
$scope module uart_rcv $end
$upscope $end
$scope module terminal $end
$var reg 1 v# clk $end
$var reg 1 w# reset $end
$var reg 1 x# dat_en $end
$var reg 8 y# dat[7:0] $end
$comment buffer_i is not handled $end
$var integer 32 z# unique_i $end
$upscope $end
$upscope $end
$upscope $end
$enddefinitions $end
#0
0!
1"
bUUUUUUUUUUUUUUUU #
U$
0%
0&
1'
bUUUUUUUUUUUUUUUU (
U)
0*
0+
bXXXXXXXXXXXXXXXXXXXXXXXXXXXXXXXX ,
b00000000000000000000000000000000 -
bUUUUUUUUUUUUUUUUUUUUUUUUUUUUUUUU .
U/
U0
bXXXXXXXXXXXXXX 1
U2
13
04
b0000000000000000 5
b0000000000000000 6
U7
b00000000 8
bUUUUUUUU 9
0:
b00000000 ;
U<
bUUUUUUUU =
bUUUUUUUUUUUUUUUU >
0?
0@
bXXXXXXXXXXXXXXXXXXXXXXXXXXXXXXXX A
b00000000000000000000000000000000 B
bUUUUUUUUUUUUUUUUUUUUUUUUUUUUUUUU C
UD
UE
bUUUUU F
0G
bUUUUUUUUUUUUUUUUUUUUUUUUUUUUUUUU H
bUUUUUUUUUUUUUUUUUUUUUUUUUUUUUUUU I
UJ
UK
bUUUUUUUUUUUUUUUUUUUUUUUUUUUUUUUU L
bUUUUUUUUUUUUUUUUUUUUUUUUUUUUUUUU M
bUUUUUUUUUUUUUUUUUUUUUUUUUUUUUUUU N
bUUUUUUUUUUUUUUUUUUUUUUUUUUUUUUUU O
bUUUUUUUUUUUUUUUUUUUUUUUUUUUUUUUU P
0Q
0R
0S
0T
0U
0V
0W
0X
0Y
0Z
0[
0\
bUUUUUUUUUUUUUUUUUUUUUUUUUUUUUUUU ]
bUUUUUUUUUUUUUUUUUUUUUUUUUUUUUUUU ^
bUUUUUUUUUUUUUUUUUUUUUUUUUUUUUUUU _
bUUUUUUUUUUUUUUUUUUUUUUUUUUUUUUUU `
bUUUUUUUUUUUUUUUUUUUUUUUUUUUUUUUU a
bUUUUUUUUUUUUUUUUUUUUUUUUUUUUUUUU b
0c
0d
bUUU e
bUUUUUUU f
bUUUUU g
bUUUUU h
bUUUUU i
bUU j
Uk
Ul
bXXXXXXXXXXXXXXXXXXXXXXXXXXXXXXXX m
b1111 n
b0000 o
bUUUUUUUUUUUUUUUUUUUUUUUUUUUUUUUU p
bUUUUUUUUUUUUUUUUUUUUUUUUUUUUUUUU q
Ur
Us
Ut
Uu
Uv
Uw
Ux
Uy
Uz
U{
bUUUUUUUUUUUUUUUUUUUUUUUUUUUUUUUU |
bUUUUU }
bUU !"
bUUU ""
bUUUUUUU #"
U$"
bUUUUUUUUUUUUUUUUUUUUUUUUUUUUUUUU %"
bUUUUUUUUUUUUUUUUUUUUUUUUUUUUUUUU &"
X'"
X("
bXXXXXXXXXXXXXX )"
bUUUUUUUUUUUUUUUUUUUUUUUUUUUUUUUU *"
b00000000000000000000000000000000 +"
0,"
bUUUUUUUUUUUUUUUUUUUUUUUUUUUUUUUU -"
b00000000000000000000000000000000 ."
bUU /"
U0"
U1"
U2"
U3"
U4"
bUUUUU 5"
bUUU 6"
U7"
U8"
bUUUUUUUUUUUUUUUUUUUUUUUUUUUUUUUU 9"
bUUUUUUUUUUUUUUUUUUUUUUUUUUUUUUUU :"
bUUUUUUUUUUUUUUUUUUUUUUUUUUUUUUUU ;"
U<"
bUUUUUUUUUUUUUUUUUUUUUUUUUUUUUUUU ="
bXXXXXXXXXXXXXXXXXXXXXXXXXXXXXXXX >"
U?"
bUUUUUUUUUUUUUUUU @"
bUUUUUUUU A"
UB"
b00000000000000000000000000000000 C"
bUUUUUUUUUUUUUUUUUUUUUUUUUUUUUUUU D"
UE"
b00000000000000000000000000000000 F"
bUUUUUUUUUUUUUUUUUUUUUUUUUUUUUUUU G"
bUUUUU H"
UI"
0J"
UK"
bUUUUUUUUUUUUUU L"
bUUUUUUUUUUUUUUUUUUUUUUUUUUUUUUUU M"
0N"
0O"
UP"
UQ"
bUUUUUUUUUUUUUUUUUUUUUUUUUUUUUUUU R"
US"
bUUUUUUUUUUUUUUUUUUUUUUUUUUUUUUUU T"
bUUUUUUUUUUUUUUUUUUUUUUUUUUUUUUUU U"
bUUUUUUUUUUUUUUUUUUUUUUUUUUUUUUUU V"
0W"
0X"
0Y"
0Z"
0["
0\"
0]"
0^"
0_"
0`"
0a"
0b"
0c"
0d"
bUUU e"
bUUUUUUU f"
bUU g"
bUUUUU h"
bUUUUU i"
bUUUUU j"
bUUUUUUUUUUUUUUUUUUUUUUUUUUUUUUUU k"
0l"
0m"
0n"
0o"
0p"
0q"
bUUUUUUUUUUUUUUUUUUUUUUUUUUUUUUUU r"
bUUUUUUUUUUUUUUUUUUUUUUUUUUUUUUUU s"
bUUUUUUUUUUUUUUUUUUUUUUUUUUUUUUUU t"
bUUUUUUUUUUUUUUUUUUUUUUUUUUUUUUU0 u"
bUUUUUUUUUUUUUUUUUUUU000000000000 v"
bUUUUUUUUUUUUUUUUUUUUUUUUUUUUUUU0 w"
0x"
0y"
bUUUUU z"
bUUUUU {"
bUUUUU |"
U}"
bUUUUUUUUUUUUUUUUUUUUUUUUUUUUUUUU !#
bUUUUUUUUUUUUUUUUUUUUUUUUUUUUUUUU "#
bUUUUUUUUUUUUUUUUUUUUUUUUUUUUUUUU ##
bUUUUUUUUUUUUUUUUUUUUUUUUUUUUUUUU $#
bUUUUUUUUUUUUUUUUUUUUUUUUUUUUUUUU %#
U&#
U'#
U(#
bUUU )#
bUUUUUUUUUUUUUUUUUUUUUUUUUUUUUUUU *#
b00000000000000000000000000000000 +#
bUUUUUUUUUUUUUUUUUUUUUUUUUUUUUUUU ,#
0-#
bXXXXXXXXXXXXXXXXXXXXXXXXXXXXXXXX .#
bXXXXXXXXXXXXXXXXXXXXXXXXXXXXXXXX /#
bXXXXXXXXXXXXXXXXXXXXXXXXXXXXXXXX 0#
bUUUUUUUUUUUUUUUUUUUUUUUUUUUUUUUU 1#
bUUUUUUUUUUUUUUUUUUUUUUUUUUUUUUUU 2#
bUUUUUUUUUUUUUUUUUUUUUUUUUUUUUUUU 3#
bUUUUUUUUUUUUUUUUUUUUUUUUUUUUUUUU 4#
bUUUUUUUUUUUUUUUUUUUUUUUUUUUUUUUU 5#
bUUUUUUUUUUUUUUUUUUUUUUUUUUUUUUUU 6#
bUUUUUUUUUUUUUUUUUUUUUUUUUUUUUUUU 7#
bUUUUUUUUUUUUUUUUUUUUUUUUUUUUUUUU 8#
bUUUUUUUUUUUUUUUUUUUUUUUUUUUUUUUU 9#
bUUUUUUUUUUUUUUUUUUUUUUUUUUUUUUUU :#
b00000000000000000000000000000000 ;#
b00000000000000000000000000000000 <#
b00000000000000000000000000000000 =#
b00000000000000000000000000000000 >#
bXX ?#
bUUUUUUUUUUUUUUUUUUUUUUUUUUUUUUUU @#
UA#
UB#
b1111 C#
bUUUUUUUUUUUUUUUUUUUUUUUUUUUUUUUU D#
bUUUUUUUUUUUUUUUUUUUUUUUUUUUUUUUU E#
bUUUUUUUUUUUUUUUUUUUUUUUUUUUUUUUU F#
0G#
0H#
UI#
bUU J#
bUUUUUUUUUUUUUUUUUUUUUUUUUUUUUUUU K#
bUUUUUUUUUUUUUUUUUUUUUUUUUUUUUUUUUUUUUUUUUUUUUUUUUUUUUUUUUUUUUUUU L#
bUUUUUUUUUUUUUUUUUUUUUUUUUUUUUUUUUUUUUUUUUUUUUUUUUUUUUUUUUUUUUUUU M#
0N#
0O#
bUUUUUUUUUUUUUUUUUUUUUUUUUUUUUUUUUUUUUUUUUUUUUUUUUUUUUUUUUUUUUUUU P#
bUUUUUUUUUUUUUUUUUUUUUUUUUUUUUUUUUUUUUUUUUUUUUUUUUUUUUUUUUUUUUUUU Q#
0R#
0S#
UT#
bUUUUUUUUUUUUUUUUUUUUUUUUUUUUUUUUUUUUUUUUUUUUUUUUUUUUUUUUUUUUUUUU U#
bUUUUUUUUUUUUUUUUUUUUUUUUUUUUUUUUUUUUUUUUUUUUUUUUUUUUUUUUUUUUUUUU V#
0W#
bXXXXXXXXXXXXXX X#
UY#
b0000 Z#
bUUUUUUUUUUUUUUUUUUUUUUUUUUUUUUUU [#
bUUUUUUUUUUUUUUUUUUUUUUUUUUUUUUUU \#
bUU ]#
bUUUUUUUUUUUUUUUUUUUUUUUUUUUUUUUU ^#
U_#
U`#
Ua#
b00000000000000000000000000000000 b#
bUUUUUUUUUUUUUUUUUUUUUUUU00000000 c#
bUUUUUUUUUUUUUUUU0000000000000000 d#
0e#
1f#
Ug#
b00000000 h#
Ui#
1j#
0k#
0l#
b0 m#
1n#
bUUUUUUUUU o#
b0 p#
b0 q#
b0 r#
b0 s#
Ut#
bUUUUUUUU u#
0v#
1w#
Ux#
b00000000 y#
b0 z#
#5000000
1!
b0001111111111000 #
1$
1&
b0001111111111000 (
1)
b00000000000000000000000000000000 ,
b00000000000000000000000000000000 .
0/
00
b00000000000000 1
02
07
b00000000 9
0<
b00000000 =
b0001111111111000 >
1?
b00000000000000000000000000000000 A
b00000000000000000000000000000000 C
0D
0E
b00001 F
b00000000000000000000000000000000 H
0K
b00000000000000000000000000000000 L
b00000000000000000000000000000000 N
0k
0l
b00000000000000000000000000000000 m
b00000000000000000000000000000000 p
b00000000000000000000000000000000 q
0r
0s
0t
0u
0v
0w
0x
0y
0z
0{
b00000000000000000000000000000000 |
b00000 }
b00 !"
b000 ""
b0000000 #"
0$"
b00000000000000000000000000000000 %"
b00000000000000000000000000000000 &"
0'"
1("
b00000000000000 )"
b00000000000000000000000000000000 +"
b00000000000000000000000000000000 ."
b00000000000000000000000000000000 :"
b00000000000000000000000000000000 ;"
b00000000000000000000000000000000 >"
1J"
1K"
b00000000000000 L"
1N"
1P"
0Q"
b00000000000000000000000000000000 T"
b00000000000000000000000000000000 U"
1x"
0}"
b00000000000000000000000000000000 "#
b00000000000000000000000000000000 ##
b00000000000000000000000000000000 $#
b00000000000000000000000000000000 %#
0&#
0'#
0(#
b000 )#
b00000000000000000000000000000000 *#
b00000000000000000000000000000000 +#
b00000000000000000000000000000000 .#
b00000000000000000000000000000000 /#
b00000000000000000000000000000000 0#
b00000000000000000000000000000000 1#
b00000000000000000000000000000000 2#
b00000000000000000000000000000000 3#
b00000000000000000000000000000000 4#
b00000000000000000000000000000000 5#
b00000000000000000000000000000000 6#
b00000000000000000000000000000000 7#
b00000000000000000000000000000000 8#
b00000000000000000000000000000000 9#
b00000000000000000000000000000000 :#
b00 ?#
b00000000000000000000000000000000 @#
0A#
0B#
b00000000000000000000000000000000 D#
b00000000000000000000000000000000 E#
b00000000000000000000000000000000 F#
1G#
0I#
b00 J#
b0000000000000000000000000000000000000000000000000000000000000000 L#
b0000000000000000000000000000000000000000000000000000000000000000 M#
1N#
b0000000000000000000000000000000000000000000000000000000000000000 P#
b0000000000000000000000000000000000000000000000000000000000000000 Q#
1R#
0T#
b0000000000000000000000000000000000000000000000000000000000000000 U#
b0000000000000000000000000000000000000000000000000000000000000000 V#
1W#
b00000000000000 X#
0Y#
b00000000000000000000000000000000 [#
b00000000000000000000000000000000 \#
b00000000000000000000000000000000 ^#
b00000000000000000000000000000000 c#
b00000000000000000000000000000000 d#
1e#
0g#
1i#
b111111111 o#
b1100 p#
0t#
b00000000 u#
1v#
0x#
b1 z#
#10000000
0!
0&
0?
0J"
0N"
0x"
0G#
0N#
0R#
0W#
0e#
0v#
#15000000
1!
1&
1?
b00000000010000000000011110110111 M
1Z
b00000000010000000000000000000000 ]
1c
b000 e
b0000000 f
b00000 g
b00100 h
b01111 i
b00 j
b00000000000000000000000000000000 9"
1J"
b00000000010000000000011110110111 M"
1N"
b00000000010000000000011110110111 V"
1`"
1c"
b000 e"
b0000000 f"
b00 g"
b00000 h"
b00100 i"
b01111 j"
b00000000010000000000011110110111 k"
1q"
b00000000010000000000000000000000 r"
b00000000000000000000000000001111 s"
b00000000000000000000000000000100 t"
b00000000000000000000000000000100 u"
b00000000010000000000000000000000 v"
b00000000000000000000100000001110 w"
1x"
b00000 z"
b00100 {"
1G#
b00000000000000000000000000000000 K#
1N#
1R#
1W#
1e#
1v#
#20000000
0!
0&
0?
0J"
0N"
0x"
0G#
0N#
0R#
0W#
0e#
0v#
#25000000
1!
1&
1?
1J"
1N"
1x"
1G#
1N#
1R#
1W#
1e#
1v#
#30000000
0!
0&
0?
0J"
0N"
0x"
0G#
0N#
0R#
0W#
0e#
0v#
#35000000
1!
1&
1?
1J"
1N"
1x"
1G#
1N#
1R#
1W#
1e#
1v#
#40000000
0!
0"
0&
0'
1+
0?
1@
0J"
0N"
1O"
0x"
0G#
1H#
0N#
1O#
0R#
1S#
0W#
0e#
0f#
0v#
0w#
#45000000
1!
1&
1?
b00010 F
b00000000000000000000000000000100 H
1J"
0K"
b00000000000001 L"
1N"
0P"
b00000000000000000000000000000100 T"
b00000000000000000000000000000100 U"
1x"
1G#
b0000000000000000000000000000000000000000000000000000000000000001 L#
1N#
b0000000000000000000000000000000000000000000000000000000000000001 P#
b0000000000000000000000000000000000000000000000000000000000000001 Q#
1R#
1W#
1e#
b1101011 m#
0n#
1v#
#50000000
0!
0&
0?
0J"
0N"
0x"
0G#
0N#
0R#
0W#
0e#
0v#
#55000000
1!
1&
b00000000010000000000000000000000 ,
1?
b00000000010000000000000000000000 A
b00100 F
b00000000010000000000011110110111 N
1k
b00000000010000000000000000000000 m
b0001 n
1{
b00000000010000000000000000000000 |
b01111 }
1'"
0("
b00000000010000000000000000000000 +"
b00000000010000000000000000000000 ."
b00000000000000000000000000000001 9"
b00000000010000000000000000000000 >"
1J"
1N"
1x"
b00000000010000000000000000000000 *#
b00000000010000000000000000000000 +#
b00000000010000000000000000000000 .#
b00000000010000000000000000000000 /#
b00000000010000000000000000000000 1#
b00000000010000000000000000000000 2#
b00000000010000000000000000000000 :#
b00000000000000000000000000000001 ;#
b00000000000000000000000000000001 >#
1A#
b0001 C#
1G#
b00000000000000000000000000000001 K#
b0000000000000000000000000000000000000000000000000000000000000010 L#
1N#
b0000000000000000000000000000000000000000000000000000000000000010 P#
b0000000000000000000000000000000000000000000000000000000000000010 Q#
1R#
1W#
1Y#
1e#
1v#
#60000000
0!
0&
0?
0J"
0N"
0x"
0G#
0N#
0R#
0W#
0e#
0v#
#65000000
1!
1&
1?
b01000 F
b00000000010000000000000000000000 I
0J
b00000000010000000000011110110111 O
b00000000010000000000000000000000 -"
b00 /"
10"
01"
02"
03"
04"
b01111 5"
b000 6"
17"
08"
b00000000000000000000000000000010 9"
0<"
b00000000010000000000000000000000 ="
1?"
b00000000010000000000000000000000 D"
1E"
1J"
1N"
1Q"
b00000000010000000000000000000000 R"
0S"
1x"
1G#
1I#
b00000000000000000000000000000010 K#
b0000000000000000000000000000000000000000000000000000000000000011 L#
1N#
b0000000000000000000000000000000000000000000000000000000000000011 P#
b0000000000000000000000000000000000000000000000000000000000000011 Q#
1R#
1T#
1W#
0Y#
b00 ]#
1_#
0`#
1a#
1e#
1v#
#70000000
0!
0&
0?
0J"
0N"
0x"
0G#
0N#
0R#
0W#
0e#
0v#
#75000000
1!
1&
1?
b10000 F
1K
b00000000010000000000011110110111 P
b00000000000000000000000000000011 9"
b00000000010000000000000000000000 G"
b01111 H"
1I"
1J"
1N"
0Q"
1x"
b01111 |"
1}"
b00000000010000000000000000000000 !#
1G#
0I#
b00000000000000000000000000000011 K#
b0000000000000000000000000000000000000000000000000000000000000100 L#
b0000000000000000000000000000000000000000000000000000000000000001 M#
1N#
b0000000000000000000000000000000000000000000000000000000000000100 P#
b0000000000000000000000000000000000000000000000000000000000000100 Q#
1R#
0T#
b0000000000000000000000000000000000000000000000000000000000000001 U#
b0000000000000000000000000000000000000000000000000000000000000001 V#
1W#
1e#
1v#
#80000000
0!
0&
0?
0J"
0N"
0x"
0G#
0N#
0R#
0W#
0e#
0v#
#85000000
1!
1&
1?
b00001 F
0K
b00000000000000000000000000000100 9"
1J"
1K"
1N"
1P"
1x"
0}"
1G#
b00000000000000000000000000000100 K#
b0000000000000000000000000000000000000000000000000000000000000101 L#
1N#
b0000000000000000000000000000000000000000000000000000000000000101 P#
b0000000000000000000000000000000000000000000000000000000000000101 Q#
1R#
1W#
1e#
1v#
#90000000
0!
0&
0?
0J"
0N"
0x"
0G#
0N#
0R#
0W#
0e#
0v#
#95000000
1!
1&
1?
b00010 F
b00000000000000000000000000001000 H
b00000000000000000000000000000100 L
b00000100100000000000011100010011 M
0Z
b00000000000000000000000001001000 ]
b0000010 f
b01000 h
b01110 i
b00000000000000000000000000000101 9"
1J"
0K"
b00000000000010 L"
b00000100100000000000011100010011 M"
1N"
0P"
b00000000000000000000000000001000 T"
b00000000000000000000000000001000 U"
b00000100100000000000011100010011 V"
0`"
b0000010 f"
b01000 i"
b01110 j"
b00000100100000000000011100010011 k"
0q"
b00000000000000000000000001001000 r"
b00000000000000000000000001001110 s"
b00000000000000000000000001001000 t"
b00000000000000000000000001001000 u"
b00000100100000000000000000000000 v"
b00000000000000000000000001001110 w"
1x"
b01000 {"
1G#
b00000000000000000000000000000101 K#
b0000000000000000000000000000000000000000000000000000000000000110 L#
1N#
b0000000000000000000000000000000000000000000000000000000000000110 P#
b0000000000000000000000000000000000000000000000000000000000000110 Q#
1R#
1W#
1e#
1v#
#100000000
0!
0&
0?
0J"
0N"
0x"
0G#
0N#
0R#
0W#
0e#
0v#
